[
  {
    "id": 1,
    "name": "Pollo Asado",
    "photo": "http://www.kokoriko.com.co/Flippingbook_New/images/menu/products/LosFamosos11.jpg",
    "price": "20000"
  },
  {
    "id": 2,
    "name": "Alitas BBQ",
    "photo": "http://www.kokoriko.com.co/Flippingbook_New/images/menu/products/Entradas11.jpg",
    "price": "22000"
  },
  {
    "id": 3,
    "name": "Arroz con Pollo",
    "photo": "http://www.kokoriko.com.co/Flippingbook_New/images/menu/products/LosFamosos15.jpg",
    "price": "22000"
  },
  {
    "id": 4,
    "name": "Pechuga de Pollo con Camarones",
    "photo": "http://www.kokoriko.com.co/Flippingbook_New/images/menu/products/Especiales13.jpg",
    "price": "26000"
  },
  {
    "id": 5,
    "name": "Combo Mixto",
    "photo": "http://www.kokoriko.com.co/Flippingbook_New/images/menu/products/Infantil11.jpg",
    "price": "28000"
  },
  {
    "id": 6,
    "name": "Ensalada de Pollo",
    "photo": "http://www.kokoriko.com.co/Flippingbook_New/images/menu/products/Ensaladas11.jpg",
    "price": "17500"
  },
  {
    "id": 7,
    "name": "Filete de pechuga apanada del chef",
    "photo": "http://www.kokoriko.com.co/Flippingbook_New/images/menu/products/Especiales11.jpg",
    "price": "19500"
  },
  {
    "id": 8,
    "name": "Churrasco de Pollo",
    "photo": "http://www.kokoriko.com.co/Flippingbook_New/images/menu/products/Especiales14.jpg",
    "price": "21000"
  },
  {
    "id": 9,
    "name": "Ajiaco de pollo Kokoriko",
    "photo": "http://www.kokoriko.com.co/Flippingbook_New/images/menu/products/Colombianos11.jpg",
    "price": "16000"
  },
  {
    "id": 10,
    "name": "Calentado de la finca",
    "photo": "http://www.kokoriko.com.co/Flippingbook_New/images/menu/products/Colombianos12.jpg",
    "price": "13500"
  }
]